{
    "page": 1,
    "total_results": 107,
    "total_pages": 6,
    "results": [{
                "vote_count": 2779,
                "id": 268,
                "video": false,
                "vote_average": 7.1,
                "title": "Batman",
                "popularity": 30.580346,
                "poster_path": "\/kBf3g9crrADGMc2AMAMlLBgSm2h.jpg",
                "original_language": "en",
                "original_title": "Batman",
                "genre_ids": [14, 28],
                "backdrop_path": "\/2blmxp2pr4BhwQr74AdCfwgfMOb.jpg",
                "adult": false,
                "overview": "The Dark Knight of Gotham City begins his war on crime with his first major enemy being the clownishly homicidal Joker, who has seized control of Gotham's underworld.",
                "release_date": "1989-06-23"
                }, {
                "vote_count": 275,
                "id": 2661,
                "video": false,
                "vote_average": 6.1,
                "title": "Batman",
                "popularity": 10.061143,
                "poster_path": "\/udDVJXtAFsQ8DimrXkVFqy4DGEQ.jpg",
                "original_language": "en",
                "original_title": "Batman",
                "genre_ids": [10751, 12, 35, 878, 80],
                "backdrop_path": "\/5gcdof2PKH1emllBdN1VXU706IP.jpg",
                "adult": false,
                "overview": "The Dynamic Duo faces four super-villains who plan to hold the world for ransom with the help of a secret invention that instantly dehydrates people.",
                "release_date": "1966-07-30"
                }, {
                "vote_count": 29,
                "id": 485942,
                "video": false,
                "vote_average": 6.7,
                "title": "Batman Ninja",
                "popularity": 60.221091,
                "poster_path": "\/d5gZEW1npI2DNE5G00LvPDDICnt.jpg",
                "original_language": "ja",
                "original_title": "Batman Ninja",
                "genre_ids": [28, 16],
                "backdrop_path": "\/WPjUQRX8RCsSqHMjFSEIWX4pQU.jpg",
                "adult": false,
                "overview": "«Batman Ninja» takes a journey across the ages as Gorilla Grodd's time displacement machine transports many of Batman's worst enemies to feudal Japan —along with the Dark Knight and a few of his allies. The villains take over the forms of the feudal lords that rule the divided land, with the Joker taking the lead among the warring factions. As his traditional high-tech weaponry is exhausted almost immediately, Batman must rely on his intellect and his allies —including Catwoman and the extended Bat-family— to restore order to the land, and return to present-day Gotham City.",
                "release_date": "2018-04-24"
                }, {
                "vote_count": 9336,
                "id": 272,
                "video": false,
                "vote_average": 7.5,
                "title": "Batman Begins",
                "popularity": 56.504142,
                "poster_path": "\/dr6x4GyyegBWtinPBzipY02J2lV.jpg",
                "original_language": "en",
                "original_title": "Batman Begins",
                "genre_ids": [28, 80, 18],
                "backdrop_path": "\/65JWXDCAfwHhJKnDwRnEgVB411X.jpg",
                "adult": false,
                "overview": "Driven by tragedy, billionaire Bruce Wayne dedicates his life to uncovering and defeating the corruption that plagues his home, Gotham City.  Unable to work within the system, he instead creates a new identity, a symbol of fear for the criminal underworld - The Batman.",
                "release_date": "2005-06-10"
                }, {
                "vote_count": 2231,
                "id": 364,
                "video": false,
                "vote_average": 6.7,
                "title": "Batman Returns",
                "popularity": 29.234175,
                "poster_path": "\/ifzddUhnsTf1h6guBUKBlDwuS1t.jpg",
                "original_language": "en",
                "original_title": "Batman Returns",
                "genre_ids": [28, 14],
                "backdrop_path": "\/wNIE5dpkiHU2csDRptMutFjAGiV.jpg",
                "adult": false,
                "overview": "Having defeated the Joker, Batman now faces the Penguin - a warped and deformed individual who is intent on being accepted into Gotham society. Crooked businessman Max Schreck is coerced into helping him become Mayor of Gotham and they both attempt to expose Batman in a different light. Selina Kyle, Max's secretary, is thrown from the top of a building and is transformed into Catwoman - a mysterious figure who has the same personality disorder as Batman. Batman must attempt to clear his name, all the time deciding just what must be done with the Catwoman.",
                "release_date": "1992-06-19"
                }, {
                "vote_count": 1994,
                "id": 414,
                "video": false,
                "vote_average": 5.2,
                "title": "Batman Forever",
                "popularity": 27.50651,
                "poster_path": "\/eTMrHEhlFPHNxpqGwpGGTdAa0xV.jpg",
                "original_language": "en",
                "original_title": "Batman Forever",
                "genre_ids": [28, 80, 14],
                "backdrop_path": "\/gVTTtYgKIBurNvkGiGC6735b8y.jpg",
                "adult": false,
                "overview": "The Dark Knight of Gotham City confronts a dastardly duo: Two-Face and the Riddler. Formerly District Attorney Harvey Dent, Two-Face believes Batman caused the courtroom accident which left him disfigured on one side. And Edward Nygma, computer-genius and former employee of millionaire Bruce Wayne, is out to get the philanthropist; as The Riddler. Former circus acrobat Dick Grayson, his family killed by Two-Face, becomes Wayne's ward and Batman's new partner Robin.",
                "release_date": "1995-06-16"
                }, {
                "vote_count": 1904,
                "id": 415,
                "video": false,
                "vote_average": 4.1,
                "title": "Batman & Robin",
                "popularity": 27.039743,
                "poster_path": "\/79AYCcxw3kSKbhGpx1LiqaCAbwo.jpg",
                "original_language": "en",
                "original_title": "Batman & Robin",
                "genre_ids": [878, 28, 14, 35],
                "backdrop_path": "\/kApSkGbFWaXa6jNg3HmhqA3eMfr.jpg",
                "adult": false,
                "overview": "Along with crime-fighting partner Robin and new recruit Batgirl, Batman battles the dual threat of frosty genius Mr. Freeze and homicidal horticulturalist Poison Ivy. Freeze plans to put Gotham City on ice, while Ivy tries to drive a wedge between the dynamic duo.",
                "release_date": "1997-06-20"
                }, {
                "vote_count": 9254,
                "id": 209112,
                "video": false,
                "vote_average": 5.8,
                "title": "Batman v Superman: Dawn of Justice",
                "popularity": 63.526494,
                "poster_path": "\/cGOPbv9wA5gEejkUN892JrveARt.jpg",
                "original_language": "en",
                "original_title": "Batman v Superman: Dawn of Justice",
                "genre_ids": [28, 12, 14],
                "backdrop_path": "\/vsjBeMPZtyB7yNsYY56XYxifaQZ.jpg",
                "adult": false,
                "overview": "Fearing the actions of a god-like Super Hero left unchecked, Gotham City’s own formidable, forceful vigilante takes on Metropolis’s most revered, modern-day savior, while the world wrestles with what sort of hero it really needs. And with Batman and Superman at war with one another, a new threat quickly arises, putting mankind in greater danger than it’s ever known before.",
                "release_date": "2016-03-23"
                }, {
                "vote_count": 2053,
                "id": 324849,
                "video": false,
                "vote_average": 7.2,
                "title": "The Lego Batman Movie",
                "popularity": 14.689373,
                "poster_path": "\/1pHOqpdCYNmtRVJs6pGKQKttrPm.jpg",
                "original_language": "en",
                "original_title": "The Lego Batman Movie",
                "genre_ids": [28, 16, 35, 10751, 14],
                "backdrop_path": "\/jqnbac3oind5VOcAN0mTXyapOGh.jpg",
                "adult": false,
                "overview": "In the irreverent spirit of fun that made “The Lego Movie” a worldwide phenomenon, the self-described leading man of that ensemble—Lego Batman—stars in his own big-screen adventure. But there are big changes brewing in Gotham, and if he wants to save the city from The Joker’s hostile takeover, Batman may have to drop the lone vigilante thing, try to work with others and maybe, just maybe, learn to lighten up.",
                "release_date": "2017-02-08"
                }, {
                "vote_count": 114,
                "id": 471474,
                "video": false,
                "vote_average": 6.7,
                "title": "Batman: Gotham by Gaslight",
                "popularity": 14.121362,
                "poster_path": "\/7souLi5zqQCnpZVghaXv0Wowi0y.jpg",
                "original_language": "en",
                "original_title": "Batman: Gotham by Gaslight",
                "genre_ids": [53, 28, 16, 878],
                "backdrop_path": "\/9ojJB7vZR2uDqXdxOzYaADthEBT.jpg",
                "adult": false,
                "overview": "In an alternative Victorian Age Gotham City, Batman begins his war on crime while he investigates a new series of murders by Jack the Ripper.",
                "release_date": "2018-01-12"
                }, {
                "vote_count": 376,
                "id": 242643,
                "video": false,
                "vote_average": 7.2,
                "title": "Batman: Assault on Arkham",
                "popularity": 12.244387,
                "poster_path": "\/nYOoqnGuiUUNE4gccO0JJigfACP.jpg",
                "original_language": "en",
                "original_title": "Batman: Assault on Arkham",
                "genre_ids": [53, 16, 28, 80],
                "backdrop_path": "\/rZhblFe1Y9IheA47fO3i0b0qdvt.jpg",
                "adult": false,
                "overview": "Based on the hit video game series, Batman must find a bomb planted by the Joker while dealing with a mysterious team of villains called, The Suicide Squad.",
                "release_date": "2014-08-12"
                }, {
                "vote_count": 171,
                "id": 408648,
                "video": false,
                "vote_average": 5.8,
                "title": "Batman and Harley Quinn",
                "popularity": 9.204061,
                "poster_path": "\/dPsjte846EcEWQpfMmGHrTWIJd8.jpg",
                "original_language": "en",
                "original_title": "Batman and Harley Quinn",
                "genre_ids": [12, 28, 16],
                "backdrop_path": "\/mBzNVeSRX5LVCi7a3UrPeFWxRqw.jpg",
                "adult": false,
                "overview": "Batman and Nightwing are forced to team with the Joker's sometimes-girlfriend Harley Quinn to stop a global threat brought about by Poison Ivy and Jason Woodrue, the Floronic Man.",
                "release_date": "2017-08-14"
                }, {
                "vote_count": 16,
                "id": 456348,
                "video": false,
                "vote_average": 7.8,
                "title": "Batman & Bill",
                "popularity": 5.791019,
                "poster_path": "\/gc1oyq0K8TdtFTXmYV03v536HsI.jpg",
                "original_language": "en",
                "original_title": "Batman & Bill",
                "genre_ids": [99],
                "backdrop_path": "\/u82RurwuuaHlnv0SWEpSSK8T7a8.jpg",
                "adult": false,
                "overview": "Everyone thinks that Bob Kane created Batman, but that’s not the whole truth. One author makes it his crusade to make it known that Bill Finger, a struggling writer, actually helped invent the iconic superhero, from concept to costume to the very character we all know and love. Bruce Wayne may be Batman’s secret identity, but his creator was always a true mystery.",
                "release_date": "2017-05-06"
                }, {
                "vote_count": 630,
                "id": 382322,
                "video": false,
                "vote_average": 6.2,
                "title": "Batman: The Killing Joke",
                "popularity": 10.689513,
                "poster_path": "\/zm0ODjtfJfJW0W269LqsQl5OhJ8.jpg",
                "original_language": "en",
                "original_title": "Batman: The Killing Joke",
                "genre_ids": [28, 16, 80, 18],
                "backdrop_path": "\/iYrE2zV1DfZ3l7Lh4frHzNwFncq.jpg",
                "adult": false,
                "overview": "As Batman hunts for the escaped Joker, the Clown Prince of Crime attacks the Gordon family to prove a diabolical point mirroring his own fall into madness. Based on the graphic novel by Alan Moore and Brian Bolland.",
                "release_date": "2016-07-21"
                }, {
                "vote_count": 244,
                "id": 366924,
                "video": false,
                "vote_average": 6.8,
                "title": "Batman: Bad Blood",
                "popularity": 9.834365,
                "poster_path": "\/xp65MaH8bycr5v14f8jPO2NEXlX.jpg",
                "original_language": "en",
                "original_title": "Batman: Bad Blood",
                "genre_ids": [28, 16, 878],
                "backdrop_path": "\/1jpJpe5sx0AzSLOMFfds0s5alSw.jpg",
                "adult": false,
                "overview": "Bruce Wayne is missing. Alfred covers for him while Nightwing and Robin patrol Gotham City in his stead. And a new player, Batwoman, investigates Batman's disappearance.",
                "release_date": "2016-03-22"
                }, {
                "vote_count": 6,
                "id": 414906,
                "video": false,
                "vote_average": 10,
                "title": "The Batman",
                "popularity": 5.136561,
                "poster_path": "\/3t7QnmZSGk0c7K4b2mYKdCNj56y.jpg",
                "original_language": "en",
                "original_title": "The Batman",
                "genre_ids": [28, 12, 18],
                "backdrop_path": "\/4Cp1zoZuXDXxIwzHbGnBJqrDvee.jpg",
                "adult": false,
                "overview": "Batman's first stand-alone appearance in the DC Extended Universe.",
                "release_date": ""
                }, {
                "vote_count": 357,
                "id": 251519,
                "video": false,
                "vote_average": 6.7,
                "title": "Son of Batman",
                "popularity": 9.478626,
                "poster_path": "\/j3SFJqZPeeB9g5JMU7UFLgEqj2T.jpg",
                "original_language": "en",
                "original_title": "Son of Batman",
                "genre_ids": [16, 28, 12],
                "backdrop_path": "\/omK35Mr3oks6bd5efrgsO7CzmLP.jpg",
                "adult": false,
                "overview": "Batman learns that he has a violent, unruly pre-teen son with Talia al Ghul named Damian Wayne who is secretly being raised by Ra's al Ghul and the League of Assassins. When Ra's al Ghul apparently dies after a battle with Deathstroke, Batman must work to stop his long-lost son from taking revenge and guiding him to a righteous path, in addition to the chance for the pair to truly acknowledging each other as family.",
                "release_date": "2014-04-20"
                }, {
                "vote_count": 218,
                "id": 45162,
                "video": false,
                "vote_average": 6.9,
                "title": "Superman\/Batman: Apocalypse",
                "popularity": 8.623761,
                "poster_path": "\/wNtrbql45NqvomsYKr3uHXgFj2D.jpg",
                "original_language": "en",
                "original_title": "Superman\/Batman: Apocalypse",
                "genre_ids": [28, 12, 16],
                "backdrop_path": "\/bMNEElThWSUgzFUOn5SYU4eHYXG.jpg",
                "adult": false,
                "overview": "Batman discovers a mysterious teen-aged girl with superhuman powers and a connection to Superman. When the girl comes to the attention of Darkseid, the evil overlord of Apokolips, events take a decidedly dangerous turn.",
                "release_date": "2010-09-28"
                }, {
                "vote_count": 67,
                "id": 327418,
                "video": false,
                "vote_average": 5.5,
                "title": "Batman Unlimited: Animal Instincts",
                "popularity": 8.424106,
                "poster_path": "\/1N7KJtdGqiwGbHTWgqt5dleP3rP.jpg",
                "original_language": "en",
                "original_title": "Batman Unlimited: Animal Instincts",
                "genre_ids": [28, 16, 10751],
                "backdrop_path": "\/sJWdgdZanUZV2VpYAgDV5CSqVvE.jpg",
                "adult": false,
                "overview": "Gotham City is under siege by a series of bizarre crimes and only the world's greatest detective, Batman, can unravel the mystery! The trail leads to none other than the Penguin and his Animilitia, an animal-inspired squad of villains including Silverback, Cheetah, Killer Croc and the monstrous Man-Bat.",
                "release_date": "2015-05-12"
                }, {
                "vote_count": 269,
                "id": 321528,
                "video": false,
                "vote_average": 6.8,
                "title": "Batman vs. Robin",
                "popularity": 6.839006,
                "poster_path": "\/6g7iQJAgyDn9mep98RXhLI64RcA.jpg",
                "original_language": "en",
                "original_title": "Batman vs. Robin",
                "genre_ids": [28, 12, 16],
                "backdrop_path": "\/oERfMmGc1GJRnC8IuFUH7zpR5z5.jpg",
                "adult": false,
                "overview": "Damian Wayne is having a hard time coping with his father's \"no killing\" rule. Meanwhile, Gotham is going through hell with threats such as the insane Dollmaker, and the secretive Court of Owls.",
                "release_date": "2015-04-14"
                }]
}
